[
	{
		"placeGenre":"hotel",
		"name":"お花見久兵衛",
		"nameimg":"",
		"lat":"36.238722",
		"lng":"136.369444",
		"detail":"<div class=\"balloon1\"><p>TVの紹介が多い人気旅館</p><dl><dt>【総客室】</dt><dd>49室</dd><dt>【料　金】</dt><dd>12,960円</dd><dt>【TEL】</dt><dd>0761-78-1301</dd></dl><div class=\"btn_hp\"><a href=\"http://www.ohanami-kyubei.jp/\" target=\"_blank\"><img src=\"../images/highlights/map/btn_hp.jpg\" alt=\"ホームページへ\"></a></div></div>"
	},
	{
		"placeGenre":"hotel",
		"name":"かがり吉祥亭",
		"nameimg":"",
		"lat":"36.242182",
		"lng":"136.371477",
		"detail":"<div class=\"balloon1\"><p>鶴仙渓こおろぎ橋を望む<br>加賀モダンな湯宿。</p><dl><dt>【総客室】</dt><dd>45室</dd><dt>【料　金】</dt><dd>18,900〜38,850円</dd><dt>【TEL】</dt><dd>0761-78-2223</dd></dl><div class=\"btn_hp\"><a href=\"http://kagari-kisshotei.com/\" target=\"_blank\"><img src=\"../images/highlights/map/btn_hp.jpg\" alt=\"ホームページへ\"></a></div></div>"
	},
	{
		"placeGenre":"hotel",
		"name":"かよう亭",
		"nameimg":"",
		"lat":"36.250147",
		"lng":"136.376644",
		"detail":"<div class=\"balloon1\"><p>1万坪の敷地の中、全10室。「我が家に帰ったかの如き寛ぎを覚える」そんな宿でありたいと願っております。</p><dl><dt>【総客室】</dt><dd>10室</dd><dt>【料　金】</dt><dd>38,880円〜</dd><dt>【TEL】</dt><dd>0761-78-1410</dd></dl><div class=\"btn_hp\"><a href=\"http://www.kayotei.jp/\" target=\"_blank\"><img src=\"../images/highlights/map/btn_hp.jpg\" alt=\"ホームページへ\"></a></div></div>"
	},
	{
		"placeGenre":"hotel",
		"name":"吉祥やまなか",
		"nameimg":"",
		"lat":"36.251807",
		"lng":"136.376047",
		"detail":"<div class=\"balloon1\"><p>加賀コンシャスな湯宿。</p><dl><dt>【総客室】</dt><dd>44室</dd><dt>【料　金】</dt><dd>24,200〜50,600円</dd><dt>【TEL】</dt><dd>0761-78-5656</dd></dl><div class=\"btn_hp\"><a href=\"http://kissho-yamanaka.com/\" target=\"_blank\"><img src=\"../images/highlights/map/btn_hp.jpg\" alt=\"ホームページへ\"></a></div></div>"
	},
	{
		"placeGenre":"hotel",
		"name":"厨八十八",
		"nameimg":"",
		"lat":"36.233995",
		"lng":"136.367269",
		"detail":"<div class=\"balloon1\"><p>月替りの献立で旬の味覚を。</p><dl><dt>【総客室】</dt><dd>24室</dd><dt>【料　金】</dt><dd>32,250〜43,050円</dd><dt>【TEL】</dt><dd>0761-78-8080</dd></dl><div class=\"btn_hp\"><a href=\"http://www.yasohachi.com/\" target=\"_blank\"><img src=\"../images/highlights/map/btn_hp.jpg\" alt=\"ホームページへ\"></a></div></div>"
	},
	{
		"placeGenre":"hotel",
		"name":"胡蝶",
		"nameimg":"",
		"lat":"36.246008",
		"lng":"136.375206",
		"detail":"<div class=\"balloon1\"><p>日本が香る宿。</p><dl><dt>【総客室】</dt><dd>10室</dd><dt>【料　金】</dt><dd>28,080円〜</dd><dt>【TEL】</dt><dd>0761-78-4500</dd></dl><div class=\"btn_hp\"><a href=\"http://kochou.jp/\" target=\"_blank\"><img src=\"../images/highlights/map/btn_hp.jpg\" alt=\"ホームページへ\"></a></div></div>"
	},
	{
		"placeGenre":"hotel",
		"name":"白鷺湯たわらや",
		"nameimg":"",
		"lat":"36.248160",
		"lng":"136.375678",
		"detail":"<div class=\"balloon1\"><p>創業八百年、三十五代伝承の宿。湯量豊富な渓流野天風呂が魅力。</p><dl><dt>【総客室】</dt><dd>50室</dd><dt>【料　金】</dt><dd>16,200円〜</dd><dt>【TEL】</dt><dd>0761-78-1321</dd></dl><div class=\"btn_hp\"><a href=\"http://www.tawaraya.co.jp/\" target=\"_blank\"><img src=\"../images/highlights/map/btn_hp.jpg\" alt=\"ホームページへ\"></a></div></div>"
	},
	{
		"placeGenre":"hotel",
		"name":"翠明桂御園",
		"nameimg":"",
		"lat":"36.252421",
		"lng":"136.376344",
		"detail":"<div class=\"balloon1\"><p>テレビドラマはるちゃんの宿。</p><dl><dt>【総客室】</dt><dd>80室</dd><dt>【料　金】</dt><dd>14,040円〜</dd><dt>【TEL】</dt><dd>0761-78-1616</dd></dl><div class=\"btn_hp\"><a href=\"http://www.suimei.co.jp/\" target=\"_blank\"><img src=\"../images/highlights/map/btn_hp.jpg\" alt=\"ホームページへ\"></a></div></div>"
	},
	{
		"placeGenre":"hotel",
		"name":"すゞや今日楼",
		"nameimg":"",
		"lat":"36.237023",
		"lng":"136.369570",
		"detail":"<div class=\"balloon1\"><p>大露天おわんの湯<br>「赤湯・黒湯」。</p><dl><dt>【総客室】</dt><dd>33室</dd><dt>【料　金】</dt><dd>15,750〜31,500円</dd><dt>【TEL】</dt><dd>0761-78-4848</dd></dl><div class=\"btn_hp\"><a href=\"http://www.konnichiro.co.jp/\" target=\"_blank\"><img src=\"../images/highlights/map/btn_hp.jpg\" alt=\"ホームページへ\"></a></div></div>"
	},
	{
		"placeGenre":"hotel",
		"name":"花紫",
		"nameimg":"",
		"lat":"36.250519",
		"lng":"136.375972",
		"detail":"<div class=\"balloon1\"><p>12時チェックイン＆アウト。自由に選べるアラカルト懐石が好評。</p><dl><dt>【総客室】</dt><dd>27室</dd><dt>【料　金】</dt><dd>32,500円〜</dd><dt>【TEL】</dt><dd>0761-78-0077</dd></dl><div class=\"btn_hp\"><a href=\"http://www.hana-mura.com/\" target=\"_blank\"><img src=\"../images/highlights/map/btn_hp.jpg\" alt=\"ホームページへ\"></a></div></div>"
	},
	{
		"placeGenre":"hotel",
		"name":"北陸キャッスル<br>バーデンホテル<br>日本の宿 山留花",
		"nameimg":"",
		"lat":"36.236110",
		"lng":"136.370234",
		"detail":"<div class=\"balloon1\"><p>ゆったり温泉と旬の味覚。</p><dl><dt>【総客室】</dt><dd>103室</dd><dt>【料　金】</dt><dd>13,824円〜</dd><dt>【TEL】</dt><dd>0761-78-4126</dd></dl><div class=\"btn_hp\"><a href=\"http://ryokan-santoka.co.jp/index.php\" target=\"_blank\"><img src=\"../images/highlights/map/btn_hp.jpg\" alt=\"ホームページへ\"></a></div></div>"
	},
	{
		"placeGenre":"hotel",
		"name":"みやこわすれの宿<br>こおろぎ楼",
		"nameimg":"",
		"lat":"36.240894",
		"lng":"136.371501",
		"detail":"<div class=\"balloon1\"><p>みやこわすれをテーマに、静かにゆっくりと寛いで頂けるお宿です。</p><dl><dt>【総客室】</dt><dd>7室</dd><dt>【料　金】</dt><dd>23,760円〜</dd><dt>【TEL】</dt><dd>0761-78-1117</dd></dl><div class=\"btn_hp\"><a href=\"http://www.koorogirou.jp/\" target=\"_blank\"><img src=\"../images/highlights/map/btn_hp.jpg\" alt=\"ホームページへ\"></a></div></div>"
	},
	{
		"placeGenre":"hotel",
		"name":"山中温泉<br>河鹿荘ロイヤルホテル",
		"nameimg":"",
		"lat":"36.244220",
		"lng":"136.374325",
		"detail":"<div class=\"balloon1\"><p>渓谷沿いに建つ白亜の温泉リゾートホテル。</p><dl><dt>【総客室】</dt><dd>121室</dd><dt>【料　金】</dt><dd>12,960円〜</dd><dt>【TEL】</dt><dd>0761-78-5550</dd></dl><div class=\"btn_hp\"><a href=\"http://www.daiwaresort.jp/kajikasou/\" target=\"_blank\"><img src=\"../images/highlights/map/btn_hp.jpg\" alt=\"ホームページへ\"></a></div></div>"
	},
	{
		"placeGenre":"hotel",
		"name":"湯快倶楽部<br>よしのや依緑園",
		"nameimg":"",
		"lat":"36.243527",
		"lng":"136.372564",
		"detail":"<div class=\"balloon1\"><p>鶴仙渓の清流に佇む<br>八百年の歴史と風情。</p><dl><dt>【総客室】</dt><dd>61室</dd><dt>【料　金】</dt><dd>10,260円〜</dd><dt>【TEL】</dt><dd>0570-550-178</dd></dl><div class=\"btn_hp\"><a href=\"http://yoshinoyairokuen.jp/\" target=\"_blank\"><img src=\"../images/highlights/map/btn_hp.jpg\" alt=\"ホームページへ\"></a></div></div>"
	},
	{
		"placeGenre":"hotel",
		"name":"湯快リゾート<br>山中グランドホテル",
		"nameimg":"",
		"lat":"36.253320",
		"lng":"136.372258",
		"detail":"<div class=\"balloon1\"><p>鶴仙渓の清流に佇む<br>八百年の歴史と風情。</p><dl><dt>【総客室】</dt><dd>61室</dd><dt>【料　金】</dt><dd>10,260円〜</dd><dt>【TEL】</dt><dd>0570-550-178</dd></dl><div class=\"btn_hp\"><a href=\"http://yamanaka-gh.jp/\" target=\"_blank\"><img src=\"../images/highlights/map/btn_hp.jpg\" alt=\"ホームページへ\"></a></div></div>"
	},
	{
		"placeGenre":"hotel",
		"name":"湯快リゾート<br>山中温泉 花・彩朝楽",
		"nameimg":"",
		"lat":"36.234957",
		"lng":"136.366624",
		"detail":"<div class=\"balloon1\"><p>&#12298;女性専用旅館&#12299;飲み放題・貸出品・カラオケ…12種類の楽しみ放題。</p><dl><dt>【総客室】</dt><dd>71室</dd><dt>【料　金】</dt><dd>9,180円〜</dd><dt>【TEL】</dt><dd>0570-550-178</dd></dl><div class=\"btn_hp\"><a href=\"http://hana-saichoraku.jp/\" target=\"_blank\"><img src=\"../images/highlights/map/btn_hp.jpg\" alt=\"ホームページへ\"></a></div></div>"
	},
	{
		"placeGenre":"hotel",
		"name":"セレクトグランド<br>加賀山中",
		"nameimg":"",
		"lat":"36.235579",
		"lng":"136.368016",
		"detail":"<div class=\"balloon1\"><p>セレクトホテルズがおくる新しい温泉宿が加賀山中に誕生しました。</p><dl><dt>【総客室】</dt><dd>86室</dd><dt>【料　金】</dt><dd>9,720円〜</dd><dt>【TEL】</dt><dd>0761-78-1122</dd></dl><div class=\"btn_hp\"><a href=\"http://selectgrand-kagayamanaka.jp/\" target=\"_blank\"><img src=\"../images/highlights/map/btn_hp.jpg\" alt=\"ホームページへ\"></a></div></div>"
	},
	{
		"placeGenre":"famous",
		"name":"栢野大杉",
		"nameimg":"",
		"lat":"36.227795",
		"lng":"136.360059",
		"detail":"<div class=\"balloon1\"><p>樹齢2300年と言い伝えられる御神木です。幹の周囲11メートル、高さ54メートルの巨木で、国の天然記念物にも指定されています。</p><div class=\"btn_hp\"><a href=\"../highlights/landmark/index.html#p07\"><img src=\"../images/highlights/map/btn_deta.jpg\" alt=\"詳細はこちら\"></a></div></div>"
	},
	{
		"placeGenre":"famous",
		"name":"道の駅 ゆけむり健康村",
		"nameimg":"",
		"lat":"36.237703",
		"lng":"136.367515",
		"detail":"<div class=\"balloon1\"><p>ゆったりと山中の湯につかることのできる温泉施設や温水プール、フィットネスジム、全天候型コートなど充実した設備を備えた施設です。</p><div class=\"btn_hp\"><a href=\"../highlights/landmark/index.html#p08\"><img src=\"../images/highlights/map/btn_deta.jpg\" alt=\"詳細はこちら\"></a></div></div>"
	},
	{
		"placeGenre":"famous",
		"name":"無限庵",
		"nameimg":"",
		"lat":"36.240720",
		"lng":"136.372401",
		"detail":"<div class=\"balloon1\"><p>加賀藩家老・横山家が金沢市の邸内に建てた書院を移築したもので、古九谷や加賀蒔絵、千利休ゆかりの茶道具など、数々の古美術品を展示しています。</p><div class=\"btn_hp\"><a href=\"http://www.mugenan.com/\" target=\"_blank\"><img src=\"../images/highlights/map/btn_hp.jpg\" alt=\"ホームページへ\"></a></div></div>"
	},
	{
		"placeGenre":"famous",
		"name":"こおろぎ橋",
		"nameimg":"",
		"lat":"36.241032",
		"lng":"136.371663",
		"detail":"<div class=\"balloon1\"><p>鶴仙渓に架かる総ひのきの造りの橋で、山中温泉を代表する名勝地です。四季折々の風情、日本の情緒が感じられ、一年を通じて多くの観光客が訪れます。</p><div class=\"btn_hp\"><a href=\"../highlights/landmark/index.html#p01\"><img src=\"../images/highlights/map/btn_deta.jpg\" alt=\"詳細はこちら\"></a></div></div>"
	},
	{
		"placeGenre":"famous",
		"name":"鶴仙渓",
		"nameimg":"",
		"lat":"36.241063",
		"lng":"136.371446",
		"detail":"<div class=\"balloon1\"><p>北陸随一の渓谷美を誇る名所で、1.3キロの遊歩道が整備されています。四季折々の景観と立ち並ぶ奇岩怪石、橋めぐりを楽しむことができます。</p><div class=\"btn_hp\"><a href=\"../highlights/landmark/index.html#p02\"><img src=\"../images/highlights/map/btn_deta.jpg\" alt=\"詳細はこちら\"></a></div></div>"
	},
	{
		"placeGenre":"famous",
		"name":"国分山医王寺",
		"nameimg":"",
		"lat":"36.249144",
		"lng":"136.371715",
		"detail":"<div class=\"balloon1\"><p>山中温泉を守護するお寺として薬師如来を奉り、町の人々からは「お薬師さん」と親しまれます。宝物館には山中温泉ゆかりの文化財が展示されています。</p></div>"
	},
	{
		"placeGenre":"famous",
		"name":"総湯 菊の湯",
		"nameimg":"",
		"lat":"36.246951",
		"lng":"136.373254",
		"detail":"<div class=\"balloon1\"><p>天平風の優雅な造りの総湯で、温泉の発見以来湯ざや（共同湯）が造られた場所に建っています。入浴料は大人440円、中人130円、小人50円です。</p><div class=\"btn_hp\"><a href=\"../highlights/landmark/index.html#p03\"><img src=\"../images/highlights/map/btn_deta.jpg\" alt=\"詳細はこちら\"></a></div></div>"
	},
	{
		"placeGenre":"famous",
		"name":"あやとりはし",
		"nameimg":"",
		"lat":"36.245495",
		"lng":"136.375756",
		"detail":"<div class=\"balloon1\"><p>草月流家元・勅使河原宏氏が「鶴仙渓を活ける」というコンセプトのもとデザインした紅紫色のS字橋で、山中温泉の新しい名所となっています。</p><div class=\"btn_hp\"><a href=\"../highlights/landmark/index.html#p04\"><img src=\"../images/highlights/map/btn_deta.jpg\" alt=\"詳細はこちら\"></a></div></div>"
	},
	{
		"placeGenre":"famous",
		"name":"鶴ケ滝",
		"nameimg":"",
		"lat":"36.255549",
		"lng":"136.424901",
		"detail":"<div class=\"balloon1\"><p>温泉街より車で10分の場所に位置し、落差約30メートル、大小五段の滝からなっています。石川県の滝三名瀑のひとつに数えられています。</p><div class=\"btn_hp\"><a href=\"../highlights/landmark/index.html#p15\"><img src=\"../images/highlights/map/btn_deta.jpg\" alt=\"詳細はこちら\"></a></div></div>"
	},
	{
		"placeGenre":"famous",
		"name":"芭蕉堂",
		"nameimg":"",
		"lat":"36.249800",
		"lng":"136.376263",
		"detail":"<div class=\"balloon1\"><p>山中の名湯ぶりを讃えた俳聖松尾芭蕉を祀る御堂です。創建は明治43年10月で、平成22年には鶴仙渓遊歩道とともに100周年を迎えました。</p><div class=\"btn_hp\"><a href=\"../highlights/landmark/index.html#p10\"><img src=\"../images/highlights/map/btn_deta.jpg\" alt=\"詳細はこちら\"></a></div></div>"
	},
	{
		"placeGenre":"famous",
		"name":"黒谷橋",
		"nameimg":"",
		"lat":"36.250086",
		"lng":"136.375759",
		"detail":"<div class=\"balloon1\"><p>鶴仙渓の下流に架かる重厚なアーチ型の石橋です。古くから多くの人がこの黒谷橋を通って小松・那谷寺へと旅立ったと言われています。</p><div class=\"btn_hp\"><a href=\"../highlights/landmark/index.html#p05\"><img src=\"../images/highlights/map/btn_deta.jpg\" alt=\"詳細はこちら\"></a></div></div>"
	},
	{
		"placeGenre":"famous",
		"name":"桂清水",
		"nameimg":"",
		"lat":"36.255225",
		"lng":"136.372272",
		"detail":"<div class=\"balloon1\"><p>山中温泉の北の入口にある名水スポットで、樹齢500年の大桂樹の脇から清水が湧き出しています。またいつの頃からか地蔵尊が祀られています。</p><div class=\"btn_hp\"><a href=\"../highlights/landmark/index.html#p16\"><img src=\"../images/highlights/map/btn_deta.jpg\" alt=\"詳細はこちら\"></a></div></div>"
	},
	{
		"placeGenre":"famous",
		"name":"山中うるし座",
		"nameimg":"",
		"lat":"36.256224",
		"lng":"136.371715",
		"detail":"<div class=\"balloon1\"><p>山中漆器の産業振興拠点として伝統工芸品の展示、技法の公開、供覧のほか、伝統の技術・技法を受け継ぐ研修の場としても活用されています。</p><div class=\"btn_hp\"><a href=\"../highlights/landmark/index.html#p11\"><img src=\"../images/highlights/map/btn_deta.jpg\" alt=\"詳細はこちら\"></a></div></div>"
	},
	{
		"placeGenre":"famous",
		"name":"山中座",
		"nameimg":"",
		"lat":"36.247072",
		"lng":"136.372622",
		"detail":"<div class=\"balloon1\"><p>毎週土・日・祝日には「山中節四季の舞」を観賞できます。山中温泉街の観光の拠点として充実した観光案内に加え、コインロッカーも完備しています。</p><div class=\"btn_hp\"><a href=\"../highlights/landmark/index.html#p06\"><img src=\"../images/highlights/map/btn_deta.jpg\" alt=\"詳細はこちら\"></a></div></div>"
	},
	{
		"placeGenre":"famous",
		"name":"芭蕉の館",
		"nameimg":"",
		"lat":"36.246208",
		"lng":"136.373869",
		"detail":"<div class=\"balloon1\"><p>芭蕉が逗留した泉屋に隣接していた「扇屋」の別荘をに再整備したもので、芭蕉ゆかりの品や伝統工芸「山中漆器」の秀品の数々が展示されています。</p><div class=\"btn_hp\"><a href=\"../highlights/landmark/index.html#p12\"><img src=\"../images/highlights/map/btn_deta.jpg\" alt=\"詳細はこちら\"></a></div></div>"
	},
	{
		"placeGenre":"famous",
		"name":"芦湯（足湯）",
		"nameimg":"",
		"lat":"36.246697",
		"lng":"136.373214",
		"detail":"<div class=\"balloon1\"><p>山中温泉は、松尾芭蕉と曽良が別れた地としても知られています。芭蕉ゆかりの飲泉場には足湯が併設されています。</p><div class=\"btn_hp\"><a href=\"../highlights/landmark/index.html#p13\"><img src=\"../images/highlights/map/btn_deta.jpg\" alt=\"詳細はこちら\"></a></div></div>"
	},
	{
		"placeGenre":"famous",
		"name":"食彩館 山ぼうし",
		"nameimg":"",
		"lat":"36.230397",
		"lng":"136.366166",
		"detail":"<div class=\"balloon1\"><p>郷土料理や手打ちそばの販売と体験、直産品の販売や観光案内も行っています。40名までが一度に体験できるソバ打ち道場があります。</p><div class=\"btn_hp\"><a href=\"../highlights/landmark/index.html#p17\"><img src=\"../images/highlights/map/btn_deta.jpg\" alt=\"詳細はこちら\"></a></div></div>"
	},
	{
		"placeGenre":"famous",
		"name":"森光子一座 記念館",
		"nameimg":"",
		"lat":"36.246831",
		"lng":"136.373786",
		"detail":"<div class=\"balloon1\"><p>山中温泉の舞台小屋「山中座」の名誉館長であった森光子さんを偲んで、「放浪記」舞台の小道具や衣装などゆかりの品々を展示する施設です。</p><div class=\"btn_hp\"><a href=\"../highlights/landmark/index.html#p18\"><img src=\"../images/highlights/map/btn_deta.jpg\" alt=\"詳細はこちら\"></a></div></div>"
	},
	{
		"placeGenre":"gallery",
		"name":"無限庵",
		"nameimg":"",
		"lat":"36.240719",
		"lng":"136.372399",
		"detail":"<div class=\"balloon1\"><p>加賀藩ゆかりの武家書院造り。明治末期の最高級の木造建築。</p><dl><dt>【入場料】</dt><dd>500円</dd></dl></div>"
	},
	{
		"placeGenre":"gallery",
		"name":"アートギャラリー 耀",
		"nameimg":"",
		"lat":"36.244560",
		"lng":"136.372008",
		"detail":"<div class=\"balloon1\"><p>和紙が持つやさしさ、強さ、温かさ。ペーパークラフトを体験してみませんか？</p><div class=\"btn_hp\"><a href=\"http://www.nakamasa.jp/\" target=\"_blank\"><img src=\"../images/highlights/map/btn_hp.jpg\" alt=\"ホームページへ\"></a></div></div>"
	},
	{
		"placeGenre":"gallery",
		"name":"いずも堂",
		"nameimg":"",
		"lat":"36.244414",
		"lng":"136.372857",
		"detail":"<div class=\"balloon1\"><p>作り手と使う人の気持ちが通いあう生活を彩る器が楽しい。<br>喫茶コーナーもあり</p></div>"
	},
	{
		"placeGenre":"gallery",
		"name":"中国陶磁器 まつばら",
		"nameimg":"",
		"lat":"36.244711",
		"lng":"136.372400",
		"detail":"<div class=\"balloon1\"><p>五千年の時代を遡る古陶磁器と中国陶器の魅力。<br>喫茶コーナーもあり</p></div>"
	},
	{
		"placeGenre":"gallery",
		"name":"漆美 萬吉屋",
		"nameimg":"",
		"lat":"36.245090",
		"lng":"136.372550",
		"detail":"<div class=\"balloon1\"><p>やっと出会ったわたしの漆器。オリジナル作品がいっぱい。新進作家から人間国宝まで。</p></div>"
	},
	{
		"placeGenre":"gallery",
		"name":"お酒倶楽部 くぼで",
		"nameimg":"",
		"lat":"36.245461",
		"lng":"136.372921",
		"detail":"<div class=\"balloon1\"><p>旨いお酒と良い酒器。チョットだけこだわりませんか？喫茶コーナーもあり。</p><div class=\"btn_hp\"><a href=\"http://www.kubode.com/\" target=\"_blank\"><img src=\"../images/highlights/map/btn_hp.jpg\" alt=\"ホームページへ\"></a></div></div>"
	},
	{
		"placeGenre":"gallery",
		"name":"山中 片岡鶴太郎工藝館",
		"nameimg":"",
		"lat":"36.246199",
		"lng":"136.372773",
		"detail":"<div class=\"balloon1\"><p>昭和初期の国指定洋館建築。大正ロマンと鶴太郎アートがドッキング。</p><div class=\"btn_hp\"><a href=\"http://www.shozando.co.jp/\" target=\"_blank\"><img src=\"../images/highlights/map/btn_hp.jpg\" alt=\"ホームページへ\"></a></div></div>"
	},
	{
		"placeGenre":"gallery",
		"name":"あーばーちゃんの<br>オルゴール館",
		"nameimg":"",
		"lat":"36.245047",
		"lng":"136.372841",
		"detail":"<div class=\"balloon1\"><p>山中漆器のオルゴールや、アンティークオルゴールと、ピアノ生演奏をお楽しみ下さい。</p><div class=\"btn_hp\"><a href=\"http://www30.tok2.com/home/abachan/\" target=\"_blank\"><img src=\"../images/highlights/map/btn_hp.jpg\" alt=\"ホームページへ\"></a></div></div>"
	},
	{
		"placeGenre":"gallery",
		"name":"-ＫａｇａＳｔｙｌｅ－<br>きぬや",
		"nameimg":"",
		"lat":"36.249698",
		"lng":"136.375187",
		"detail":"<div class=\"balloon1\"><p>九谷焼から山中漆器の工芸品を幅広く展示。陶芸体験もあるよ。</p><div class=\"btn_hp\"><a href=\"http://www.kagaenuma.jp/kinuya/\" target=\"_blank\"><img src=\"../images/highlights/map/btn_hp.jpg\" alt=\"ホームページへ\"></a></div></div>"
	},
	{
		"placeGenre":"gallery",
		"name":"山中うるし座",
		"nameimg":"",
		"lat":"36.256224",
		"lng":"136.371718",
		"detail":"<div class=\"balloon1\"><p>400年の伝統が息づく山中漆器のすべてがわかる。</p><div class=\"btn_hp\"><a href=\"http://www.kaga-tv.com/yamanaka/meet/urushiza.html\" target=\"_blank\"><img src=\"../images/highlights/map/btn_hp.jpg\" alt=\"ホームページへ\"></a></div></div>"
	},
	{
		"placeGenre":"gallery",
		"name":"うるしの器 あさだ",
		"nameimg":"",
		"lat":"36.230728",
		"lng":"136.363399",
		"detail":"<div class=\"balloon1\"><p>「あなただけのOnly椀」<br>漆器の蒔絵体験しませんか？</p><div class=\"btn_hp\"><a href=\"http://www.uruwashikki.com/\" target=\"_blank\"><img src=\"../images/highlights/map/btn_hp.jpg\" alt=\"ホームページへ\"></a></div></div>"
	},
	{
		"placeGenre":"gallery",
		"name":"漆芸 文平堂",
		"nameimg":"",
		"lat":"36.244871",
		"lng":"136.372832",
		"detail":"<div class=\"balloon1\"><p>暮らしにとけこむ漆の器。地の技、潤いを求めて・・・</p></div>"
	},
	{
		"placeGenre":"gallery",
		"name":"国分山医王寺",
		"nameimg":"",
		"lat":"36.249147",
		"lng":"136.371716",
		"detail":"<div class=\"balloon1\"><p>住職の楽しい山中節・法話が聞けるかも・・・</p></div>"
	},
	{
		"placeGenre":"gallery",
		"name":"加賀地酒蔵 辻",
		"nameimg":"",
		"lat":"36.244052",
		"lng":"136.371991",
		"detail":"<div class=\"balloon1\"><p>加賀の地酒と山野草。ギャラリー辻にて酒とおしゃべりしませんか。</p></div>"
	}
]